^C:\USERS\АДМИНИСТРАТОР\DESKTOP\CLASSMETRIX\CLASSMETRIX\CLASSMETRIX.CPP
C:\USERS\Администратор\DESKTOP\CLASSMETRIX\CLASSMETRIX\DEBUG\CLASSMETRIX.OBJ
C:\USERS\АДМИНИСТРАТОР\DESKTOP\CLASSMETRIX\CLASSMETRIX\DEBUG\VC110.PDB
^C:\USERS\АДМИНИСТРАТОР\DESKTOP\CLASSMETRIX\CLASSMETRIX\MAIN.CPP
C:\USERS\Администратор\DESKTOP\CLASSMETRIX\CLASSMETRIX\DEBUG\MAIN.OBJ
C:\USERS\АДМИНИСТРАТОР\DESKTOP\CLASSMETRIX\CLASSMETRIX\DEBUG\VC110.PDB
